id,name,model_id:id,group_id:id,perm_read,perm_write,perm_create,perm_unlink
access_message_message,access_message_message,model_message_message,,1,1,1,1
access_subscription_mtarget,access_subscription_mtarget,model_subscription_mtarget,,1,1,1,1
access_connect_connect,access_connect_connect,model_connect_connect,,1,1,1,1
access_connect_reception,access_connect_reception,model_connect_reception,,1,1,1,1